…
Copy the file path and pasted it in the `read_parquet()` function to open the download in R. 


``` r
gbif_podarcis <- arrow::read_parquet("infinitylists/inst/data/Living-Atlas-Podarcis-2024-09-13.parquet")
```




``` r
gbif_podarcis |> print(n = 10)
#> # A tibble: 6,155 × 11
#>    Species            Genus Family `Collection Date`     Lat  Long `Voucher Type` Repository
#>  * <chr>              <chr> <chr>  <dttm>              <dbl> <dbl> <chr>          <chr>     
#>  1 Podarcis tiliguer… Poda… Lacer… 2020-10-18 09:20:00  41.6  8.81 Photograph     https://w…
#>  2 Podarcis tiliguer… Poda… Lacer… 2024-07-01 14:41:00  42.3  8.87 Photograph     https://w…
#>  3 Podarcis tiliguer… Poda… Lacer… 2022-05-30 00:00:00  41.8  9.23 Photograph     https://w…
#>  4 Podarcis siculus   Poda… Lacer… 2024-05-17 10:37:00  42.8  9.48 Photograph     https://w…
#>  5 Podarcis muralis   Poda… Lacer… 2023-07-28 17:05:00  43.5 -1.52 Photograph     https://w…
#>  6 Podarcis liolepis  Poda… Lacer… 2020-04-08 00:00:00  44.0  3.52 Photograph     https://w…
#>  7 Podarcis liolepis  Poda… Lacer… 2014-05-09 08:44:00  43.6  3.02 Photograph     https://w…
#>  8 Podarcis muralis   Poda… Lacer… 2023-05-14 19:55:00  47.6  1.34 Photograph     https://w…
#>  9 Podarcis muralis   Poda… Lacer… 2023-10-14 12:39:00  44.6  6.17 Photograph     https://w…
#> 10 Podarcis muralis   Poda… Lacer… 2020-06-18 04:07:00  43.9 -1.38 Photograph     https://w…
#> # ℹ 6,145 more rows
#> # ℹ 3 more variables: `Recorded by` <chr>, `Establishment Means` <lgl>, Link <chr>
```
