# Download exceutes

    Code
      odonata
    Output
      # A tibble: 43,731 x 11
         Species           Genus Family `Collection Date`     Lat  Long `Voucher Type`
         <chr>             <chr> <chr>  <dttm>              <dbl> <dbl> <chr>         
       1 Diphlebia euphae~ Diph~ Lesto~ 2023-10-19 00:43:00 -16.2  145. Photograph    
       2 Diplacodes melan~ Dipl~ Libel~ 2022-02-08 04:08:00 -27.2  153. Photograph    
       3 Adversaeschna br~ Adve~ Aeshn~ 2022-12-02 01:21:00 -27.5  153. Photograph    
       4 Austrogomphus oc~ Aust~ Gomph~ 2023-03-13 23:09:00 -28.8  152. Photograph    
       5 Orthetrum villos~ Orth~ Libel~ 2022-01-09 00:05:03 -36.1  150. Photograph    
       6 Austrogomphus am~ Aust~ Gomph~ 2023-03-08 05:16:00 -27.4  153. Photograph    
       7 Lathrecista asia~ Lath~ Libel~ 2022-03-13 08:13:00 -12.4  131. Photograph    
       8 Anax papuensis    Anax  Aeshn~ 2023-10-22 04:02:44 -38.3  142. Photograph    
       9 Agrionoptera ins~ Agri~ Libel~ 2022-12-02 22:32:00 -27.3  153. Photograph    
      10 Diplacodes haema~ Dipl~ Libel~ 2023-03-26 04:39:00 -26.7  152. Photograph    
      # i 43,721 more rows
      # i 4 more variables: `Voucher Location` <chr>, `Recorded by` <chr>,
      #   `Record Id` <chr>, native_anywhere_in_aus <chr>
