Create your own infinitylists
…
"Living-Atlas-" is the final cleaned
download of the data you view in the app.

# Locate file path of downloads
system.file(package = "infinitylists") |> 
  file.path("data") |> 
  list.files(pattern = "Arachnida", full.names = TRUE) # Match for Arachnida

Copy the file path and pasted it in the read_parquet()
function to open the download in R.

gbif_spiders <- arrow::read_parquet("infinitylists/inst/data/Living-Atlas-Arachnida-2024-10-16.parquet")

gbif_spiders |> print(n = 10)
#> # A tibble: 44,370 × 11
#>    Species        Genus Family `Collection Date`   Lat   Long `Voucher Type` Repository `Recorded by`
#>  * <chr>          <chr> <chr>  <chr>             <dbl>  <dbl> <chr>          <chr>      <chr>        
#>  1 Phalangium op… Phal… Phala… 2024-04-19         48.8  2.42  Photograph     https://w… Titouan Gelez
#>  2 Synema globos… Syne… Thomi… 2022-07-17         44.3  0.890 Photograph     https://w… Maël Richon  
#>  3 Salticus scen… Salt… Salti… 2021-05-27         48.0 -1.71  Photograph     https://w… Xavier HURIEZ
#>  4 Alopecosa alb… Alop… Lycos… 2020-04-23         43.3  5.42  Photograph     https://w… Martin Galli 
#>  5 Synema globos… Syne… Thomi… 2023-05-11         43.6  3.97  Photograph     https://w… Mike Hedde   
#>  6 Phalangium op… Phal… Phala… 2021-11-13         43.6  2.97  Photograph     https://w… Heikel B.    
#>  7 Philaeus chry… Phil… Salti… 2020-04-12         43.2  6.01  Photograph     https://w… Bernard Nogu…
#>  8 Philaeus chry… Phil… Salti… 2021-04-07         43.2  6.01  Photograph     https://w… Bernard Nogu…
#>  9 Trichoncoides… Tric… Linyp… 2024-02-08         43.4  5.18  Photograph     https://w… Julien Tchil…
#> 10 Lacinius horr… Laci… Phala… 2024-07-21         42.6  8.89  Photograph     https://w… Julien Botti…
#> # ℹ 44,360 more rows
#> # ℹ 2 more variables: `Establishment Means` <lgl>, Link <chr>
